
[
		{"nom" : "S'organiser statuts légétimité",
			"expert" : [44],
			"passionné" : [47, 83],
			"intéressé" : [16, 43, 89, 56, 25, 36, 12, 22, 24, 5, 90, 21, 30, 11, 54]
		},
	
		{"nom" : "Faire la fête",
			"expert" : [38],
			"passionné" : [ ],
			"intéressé" : [0, 44, 10, 63, 62]
		},

		{"nom" : "Pratiques expressives corporelles et vocales",
			"expert" : [10],
			"passionné" : [ ],
			"intéressé" : [63,62]
		},

		{"nom" : "Former pour quel monde ? Université et Anthropocène",
			"expert" : [14],
			"passionné" : [ 5, 11],
			"intéressé" : [666, 19, 48, 63]
		},

		{"nom" : "Mobilisation éléctronique",
			"expert" : [53, 44],
			"passionné" : [93, 38],
			"intéressé" : [14]
		},

		{"nom" : "Faire des salades vegan",
			"expert" : [24],
			"passionné" : [ 667, 0],
			"intéressé" : [7, 50]
		},

		{"nom" : "Squat, récup et vie en autogestion",
			"expert" : [ 13,12, 15, 18, 7, 10],
			"passionné" : [8, 3, 16, 11],
			"intéressé" : [1, 6, 14]
		},

		{"nom" : "Polyculture intensive sur petite surface",
			"expert" : [ 62],
			"passionné" : [89, 17, 19],
			"intéressé" : [0, 667, 20, 14, 48, 38, 65, 5, 57]
		},

		{"nom" : "Agronomie",
			"expert" : [ ],
			"passionné" : [17, 19, 41],
			"intéressé" : [89, 14, 0, 38]
		},

		{"nom" : "Faire le lieu !",
			"expert" : [88, 57, 41,0 ],
			"passionné" : [89, 11],
			"intéressé" : [83, 56, 25, 19, 63, 17, 62]
		},

		{"nom" : "Architecture",
			"expert" : [11, 57, 41, 88],
			"passionné" : [],
			"intéressé" : [65, 19, 25, 667, 0, 89, 30, 63]
		},

		{"nom" : "Autodidactes et culture hack/libre",
			"expert" : [93],
			"passionné" : [56, 0, 57, 38],
			"intéressé" : [ 40, 10, 12, 7, 62, 32, 15, 14, 50, 5, 667, 25, 89, 666 ]
		},

		{"nom" : "Liens avec acteur.ice.s locaux",
			"expert" : [66, 96],
			"passionné" : [ ],
			"intéressé" : [46, 29]
		},

		{"nom" : "Université pour qui ?",
			"expert" : [ ],
			"passionné" : [ ],
			"intéressé" : [ 667, 668, 12, 15, 32, 1, 90, 83, 28, 16, 25, 24, 36, 60, 7, 22, 0, 41, 6, 50, 61, 64, 48, 47, 21, 54, 58]
		},

		{"nom" : "Monter l'asso qui portera le projet",
			"expert" : [ 44, 32],
			"passionné" : [ 89, 0],
			"intéressé" : [ 40]
		},

		{"nom" : "Staff technique site web",
			"expert" : [ 93],
			"passionné" : [ 91 ],
			"intéressé" : [92, 38, 11, 0, 56, 44 ]
		},

		{"nom" : "Précaires de l'université",
			"expert" : [11],
			"passionné" : [ ],
			"intéressé" : [ 18, 12, 31, 21, 1, 667, 2, 40, 14]
		},

		{"nom" : "Enseignements",
			"expert" : [50, 36, 20, 47 ],
			"passionné" : [64, 89, 56, 42, 36, 67, 16, 60, 30],
			"intéressé" : [ 12, 37, 666, 65, 48, 32, 65, 88, 14, 45, 44, 1, 61, 52]
		},

		{"nom" : "Recherche",
			"expert" : [91, 53, 58, 16, 48],
			"passionné" : [18, 58, 12],
			"intéressé" : [61, 44, 11, 56, 14, 5, 1, 6, 92, 21]
		},

		{"nom" : "Communication",
			"expert" : [11, 0 ],
			"passionné" : [ ],
			"intéressé" : [63, 5, 30, 45, 65, 44]
		},

		{"nom" : "Logistique",
			"expert" : [ ],
			"passionné" : [0],
			"intéressé" : [88, 12, 67, 24, 7, 11, 32, 50, 667]
		}

	]